Waiting for cameras...

Ctrl+C to break.


Registering Pnp Callbacks
Event: camera 5006123 recognized

Setup camera 5006123 (0)

Starting camera 5006123 (30640816)
Left camera away!!
Event: camera 5006124 recognized

Setup camera 5006124 (0)
[L 0 1251ms 1 0 Q]
@[L 1 1300ms 2 1 Q]
@[L 2 1350ms 3 2 Q]
@[L 3 1399ms 4 3 Q]
@[L 4 1448ms 5 4 Q]
@[L 5 1497ms 6 5 Q]
@[L 6 1546ms 7 6 Q]
@[L 0 1595ms 8 7 Q]
@[L 1 1644ms 9 8 Q]
@[L 2 1694ms 10 9 Q]
@[L 3 1743ms 11 10 Q]
@[L 4 1792ms 12 11 Q]
@[L 5 1841ms 13 12 Q]
@[L 6 1890ms 14 13 Q]
@[L 0 1939ms 15 14 Q]
@[L 1 1988ms 16 15 Q]
@[L 2 2038ms 17 16 Q]
@[L 3 2087ms 18 17 Q
Starting camera 5006124 (49787840)
]
* #
Right camera away!!
[L 4 2136ms 21 18 Q]
[R 0 2179ms 21 19 Q]
* #
[L 5 2228ms 23 20 Q]
[R 1 2230ms 23 21 Q]
* #
[L 6 2279ms 25 22 Q]
[R 2 2280ms 25 23 Q]
* #
[L 0 2329ms 27 24 Q]
[R 3 2330ms 27 25 Q]
* #
[L 1 2380ms 29 26 Q]
[R 4 2381ms 29 27 Q]
* #
[L 2 2430ms 31 28 Q]
[R 5 2431ms 31 29 Q]
* #
[L 3 2481ms 33 30 Q]
[R 6 2482ms 33 31 Q]
* #
[L 4 2531ms 35 32 Q]
[R 0 2532ms 35 33 Q]
* #
[L 5 2581ms 37 34 Q]
[R 1 2583ms 37 35 Q]
* #
[L 6 2632ms 39 36 Q]
[R 2 2634ms 39 37 Q]
* #
[L 0 2684ms 41 38 Q]
[R 3 2686ms 41 39 Q]
* #
[L 1 2736ms 43 40 Q]
[R 4 2738ms 43 41 Q]
* #
[L 2 2788ms 45 42 Q]
[R 5 2790ms 45 43 Q]
* #
[L 3 2840ms 47 44 Q]
[R 6 2842ms 47 45 Q]
* #
[L 4 2892ms 49 46 Q]
[R 0 2894ms 49 47 Q]
* #
[L 5 2944ms 51 48 Q]
[R 1 2946ms 51 49 Q]
* #
[L 6 2996ms 53 50 Q]
[R 2 2998ms 53 51 Q]
* #
[L 0 3048ms 55 52 Q]
[R 3 3050ms 55 53 Q]
* #
.......................................
[L 4 6176ms 175 172 Q]
[R 0 6178ms 175 173 Q]
* #
[L 5 6228ms 177 174 Q]
[R 1 6230ms 177 175 Q]
* #
[L 6 6281ms 179 176 Q]
[R 2 6283ms 179 177 Q]
* #
[L 0 6333ms 181 178 Q]
[R 3 6334ms 181 179 Q]
* #
[L 1 6385ms 183 180 Q]

Event: camera 5006124 unplugged

Stopping camera 5006124 (49787840)
9415ms PvCall AcquisitionStop command Error 8 'Camera was unplugged'
[R 4 9419ms 183 181  (Frame cancelled 75) ]
@[R 5 9422ms 184 181  (Frame cancelled 76) ]
[R 6 9423ms 184 181  (Frame cancelled 77) ]
[R 0 9425ms 184 181  (Frame cancelled 78) ]
[R 1 9427ms 184 181  (Frame cancelled 79) ]
[R 2 9429ms 184 181  (Frame cancelled 80) ]
[R 3 9430ms 184 181  (Frame cancelled 81) ]
Queue cleared.
Driver stream stopped.
[L 2 9469ms 184 181 Q]
@[L 3 9520ms 185 182 Q]
@[L 4 9569ms 186 183 Q]
@[L 5 9619ms 187 184 Q]
@[L 6 9669ms 188 185 Q]
@[L 0 9718ms 189 186 Q]
@[L 1 9768ms 190 187 Q]
@[L 2 9818ms 191 188 Q]
@[L 3 9867ms 192 189 Q]
@[L 4 9917ms 193 190 Q]
@[L 5 9967ms 194 191 Q]
@[L 6 10016ms 195 192 Q]
@[L 0 10072ms 196 193 Q]
@[L 1 10122ms 197 194 Q]
@[L 2 10172ms 198 195 Q]
@[L 3 10221ms 199 196 Q]
@[L 4 10271ms 200 197 Q]
@[L 5 10321ms 201 198 Q]
@[L 6 10370ms 202 199 Q]
@[L 0 10420ms 203 200 Q]
@[L 1 10470ms 204 201 Q]
@[L 2 10519ms 205 202 Q]
@Event: camera 5006124 recognized

Setup camera 5006124 (49787840)
10552ms PvCall PvCameraOpen Error 7 'Camera cannot be opened in the specified mode'
[L 3 10569ms 206 203 Q]
@[L 4 10619ms 207 204 Q]
@[L 5 10669ms 208 205 Q]
@[L 6 10718ms 209 206 Q]
@[L 0 10768ms 210 207 Q]
@[L 1 10818ms 211 208 Q]
@[L 2 10867ms 212 209 Q]
@[L 3 10917ms 213 210 Q]
@[L 4 10966ms 214 211 Q]
@[L 5 11016ms 215 212 Q]
@[L 6 11076ms 216 213 Q]
@[L 0 11126ms 217 214 Q]
@[L 1 11176ms 218 215 Q]
@[L 2 11225ms 219 216 Q]
@[L 3 11275ms 220 217 Q]
@[L 4 11325ms 221 218 Q]
@[L 5 11374ms 222 219 Q]
@[L 6 11424ms 223 220 Q]
@[L 0 11474ms 224 221 Q]
@[L 1 11524ms 225 222 Q]
@[L 2 11574ms 226 223 Q]
@[L 3 11623ms 227 224 Q]
@[L 4 11673ms 228 225 Q]
@[L 5 11723ms 229 226 Q]
@[L 6 11772ms 230 227 Q]
@[L 0 11822ms 231 228 Q]
@[L 1 11872ms 232 229 Q]
@[L 2 11921ms 233 230 Q]
@[L 3 11971ms 234 231 Q]
@[L 4 12021ms 235 232 Q]
@[L 5 12072ms 236 233 Q]
@[L 6 12122ms 237 234 Q]
@[L 0 12172ms 238 235 Q]
@[L 1 12221ms 239 236 Q]
@[L 2 12271ms 240 237 Q]
@[L 3 12321ms 241 238 Q]
@[L 4 12370ms 242 239 Q]
@[L 5 12420ms 243 240 Q]
@[L 6 12470ms 244 241 Q]
@[L 0 12519ms 245 242 Q]
@[L 1 12569ms 246 243 Q]
@[L 2 12618ms 247 244 Q]
@[L 3 12668ms 248 245 Q]
@[L 4 12718ms 249 246 Q]
@[L 5 12767ms 250 247 Q]
@[L 6 12817ms 251 248 Q]
@[L 0 12867ms 252 249 Q]
@[L 1 12916ms 253 250 Q]
@[L 2 12966ms 254 251 Q]
@[L 3 13015ms 255 252 Q]
@[L 4 13072ms 256 253 Q]
@[L 5 13122ms 257 254 Q]
@[L 6 13172ms 258 255 Q]
@[L 0 13221ms 259 256 Q]
@[L 1 13271ms 260 257 Q]
@[L 2 13321ms 261 258 Q]
@[L 3 13370ms 262 259 Q]
@[L 4 13420ms 263 260 Q]
@[L 5 13470ms 264 261 Q]
@[L 6 13519ms 265 262 Q]
@[L 0 13569ms 266 263 Q]
@[L 1 13619ms 267 264 Q]
@[L 2 13668ms 268 265 Q]
@[L 3 13718ms 269 266 Q]
@[L 4 13767ms 270 267 Q]
@[L 5 13817ms 271 268 Q]
@[L 6 13867ms 272 269 Q]
@[L 0 13916ms 273 270 Q]
@[L 1 13966ms 274 271 Q]
@[L 2 14016ms 275 272 Q]
@[L 3 14076ms 276 273 Q]
@[L 4 14126ms 277 274 Q]
@[L 5 14176ms 278 275 Q]
@[L 6 14225ms 279 276 Q]
@[L 0 14275ms 280 277 Q]
@[L 1 14325ms 281 278 Q]
@[L 2 14374ms 282 279 Q]
@[L 3 14424ms 283 280 Q]
@[L 4 14474ms 284 281 Q]
@[L 5 14523ms 285 282 Q]
@[L 6 14573ms 286 283 Q]
@[L 0 14623ms 287 284 Q]
@[L 1 14672ms 288 285 Q]
@[L 2 14722ms 289 286 Q]
@[L 3 14771ms 290 287 Q]
@
Interrupt received (0)

1st pause...
[L 4 14821ms 291 288 Q]

Unsetup camera 5006123 (30640816)
[L 5 15305ms 291 289  (Frame cancelled 202) ]
[L 6 15307ms 291 289  (Frame cancelled 203) ]
[L 0 15308ms 291 289  (Frame cancelled 204) ]
[L 1 15310ms 291 289  (Frame cancelled 205) ]
[L 2 15312ms 291 289  (Frame cancelled 206) ]
[L 3 15314ms 291 289  (Frame cancelled 207) ]
[L 4 15315ms 291 289  (Frame cancelled 208) ]
Camera closed.

2nd pause...

Unsetup camera 5006124 (0)
16023ms PvCall PvCameraClose Error 3 'Camera handle is invalid'

3rd pause...

Unregistering Pnp Callbacks

4th pause...
Press any key to continue . . .

