Waiting for cameras 5006123 and 5006124...

Ctrl+C to break.

Event: camera 5006123 recognized
Found camera 0 [5006123]

Setup camera 5006123 (0)
1 cameras found
Event: camera 5006124 recognized
Found camera 1 [5006124]

Setup camera 5006124 (0)
2 cameras found

Starting camera 5006123 (28936880)

Starting camera 5006124 (46248896)
 #
Cameras sucessfully started!
[L 0 2133ms Q]
[R 0 2134ms Q]
 #
[L 1 2183ms Q]
[R 1 2184ms Q]
 #
[L 2 2233ms Q]
[R 2 2235ms Q]
 #
[L 3 2284ms Q]
[R 3 2285ms Q]
 #
[L 4 2334ms Q]
[R 4 2335ms Q]
 #
[L 5 2384ms Q]
[R 5 2385ms Q]
 #
[L 6 2434ms Q]
[R 6 2435ms Q]
 #
[L 0 2484ms Q]
[R 0 2486ms Q]
 #
[L 1 2535ms Q]
[R 1 2536ms Q]
 #
[L 2 2585ms Q]
[R 2 2586ms Q]
 #
[L 3 2635ms Q]
[R 3 2636ms Q]
 #
[L 4 2685ms Q]
[R 4 2686ms Q]
 #
[L 5 2735ms Q]
[R 5 2737ms Q]
 #
[L 6 2786ms Q]
[R 6 2787ms Q]
 #
[L 0 2836ms Q]
[R 0 2837ms Q]
 #
[L 1 2887ms Q]
[R 1 2888ms Q]
 #
[L 2 2939ms Q]
[R 2 2940ms Q]
 #
[L 3 2991ms Q]
[R 3 2992ms Q]
 #
[L 4 3042ms Q]
[R 4 3044ms Q]
 #
[L 5 3094ms Q]
[R 5 3095ms Q]
 #
[L 6 3145ms Q]
[R 6 3147ms Q]
 #
[L 0 3197ms Q]
[R 0 3199ms Q]
 #
[L 1 3249ms Q]
[R 1 3250ms Q]
 #
[L 2 3301ms Q]
[R 2 3302ms Q]
 #
[L 3 3352ms Q]
[R 3 3354ms Q]
 #
[L 4 3404ms Q]
[R 4 3405ms Q]
 #
[L 5 3456ms Q]
[R 5 3457ms Q]
 #
[L 6 3508ms Q]
[R 6 3509ms Q]
 #
[L 0 3559ms Q]
[R 0 3561ms Q]
 #
[L 1 3612ms Q]
[R 1 3613ms Q]
 #
[L 2 3664ms Q]
[R 2 3665ms Q]
 #
[L 3 3716ms Q]
[R 3 3717ms Q]
 #
[L 4 3767ms Q]
[R 4 3769ms Q]
 #
[L 5 3819ms Q]
[R 5 3821ms Q]
 #
[L 6 3871ms Q]
[R 6 3873ms Q]
 #
[L 0 3923ms Q]
[R 0 3925ms Q]
 #
[L 1 3975ms Q]
[R 1 3977ms Q]
 #
[L 2 4027ms Q]
[R 2 4029ms Q]
 #
[L 3 4079ms Q]
[R 3 4080ms Q]
 #
[L 4 4131ms Q]
[R 4 4133ms Q]
 #
[L 5 4183ms Q]
[R 5 4185ms Q]
 #
[L 6 4235ms Q]
[R 6 4237ms Q]
 #
[L 0 4287ms Q]
[R 0 4289ms Q]
 #
[L 1 4339ms Q]
[R 1 4340ms Q]
 #
[L 2 4391ms Q]
[R 2 4392ms Q]
 #
[L 3 4442ms Q]
[R 3 4444ms Q]
 #
[L 4 4494ms Q]
[R 4 4496ms Q]
 #
[L 5 4546ms Q]
[R 5 4547ms Q]
 #
[L 6 4598ms Q]
[R 6 4599ms Q]
 #
[L 0 4649ms Q]
[R 0 4651ms Q]
 #
[L 1 4701ms Q]
[R 1 4702ms Q]
 #
[L 2 4753ms Q]
[R 2 4754ms Q]
 #
[L 3 4804ms Q]
[R 3 4806ms Q]
 #
[L 4 4856ms Q]
[R 4 4858ms Q]
 #
[L 5 4908ms Q]
[R 5 4910ms Q]
 #
[L 6 4960ms Q]
[R 6 4962ms Q]
 #
[L 0 5012ms Q]
[R 0 5014ms Q]
 #
[L 1 5076ms Q]
[R 1 5077ms Q]
 #
[L 2 5128ms Q]
[R 2 5129ms Q]
 #
[L 3 5179ms Q]
[R 3 5181ms Q]
 #
[L 4 5231ms Q]
[R 4 5232ms Q]
 #
[L 5 5283ms Q]
[R 5 5284ms Q]
 #
[L 6 5334ms Q]
[R 6 5336ms Q]
 #
[L 0 5386ms Q]
[R 0 5388ms Q]
 #
[L 1 5438ms Q]
[R 1 5439ms Q]
 #
[L 2 5490ms Q]
[R 2 5491ms Q]
 #
[L 3 5542ms Q]
[R 3 5543ms Q]
 #
[L 4 5593ms Q]
[R 4 5595ms Q]
 #
[L 5 5645ms Q]
[R 5 5646ms Q]
 #
[L 6 5697ms Q]
[R 6 5698ms Q]
 #
[L 0 5748ms Q]
[R 0 5750ms Q]
 #
[L 1 5800ms Q]
[R 1 5802ms Q]
 #
[L 2 5852ms Q]
[R 2 5854ms Q]
 #
[L 3 5904ms Q]
[R 3 5905ms Q]
 #
[L 4 5955ms Q]
[R 4 5957ms Q]
 #
[L 5 6007ms Q]
[R 5 6009ms Q]
 #
[L 6 6072ms Q]
[R 6 6073ms Q]
 #
[L 0 6124ms Q]
[R 0 6125ms Q]
 #
[L 1 6175ms Q]
[R 1 6177ms Q]
 #
[L 2 6227ms Q]
[R 2 6229ms Q]
 #
[L 3 6279ms Q]
[R 3 6281ms Q]
 #
[L 4 6331ms Q]
[R 4 6332ms Q]
 #
[L 5 6383ms Q]
[R 5 6384ms Q]
 #
[L 6 6435ms Q]
[R 6 6436ms Q]
 #
[L 0 6486ms Q]
[R 0 6488ms Q]
 #
[L 1 6538ms Q]
[R 1 6540ms Q]
 #
[L 2 6590ms Q]
[R 2 6591ms Q]
 #
[L 3 6642ms Q]
[R 3 6643ms Q]
 #
[L 4 6693ms Q]
[R 4 6695ms Q]
 #
[L 5 6745ms Q]
[R 5 6746ms Q]
 #
[L 6 6797ms Q]
[R 6 6798ms Q]
 #
[L 0 6848ms Q]
[R 0 6850ms Q]
 #
[L 1 6900ms Q]
[R 1 6902ms Q]
 #
[L 2 6952ms Q]
[R 2 6953ms Q]
 #
[L 3 7004ms Q]
[R 3 7005ms Q]
 #
[L 4 7055ms Q]
[R 4 7057ms Q]
 #
[L 5 7107ms Q]
[R 5 7108ms Q]
 #
[L 6 7159ms Q]
[R 6 7160ms Q]
 #
[L 0 7210ms Q]
[R 0 7212ms Q]
 #
[L 1 7262ms Q]
[R 1 7263ms Q]
 #
[L 2 7315ms Q]
[R 2 7316ms Q]
 #
[L 3 7366ms Q]
[R 3 7368ms Q]
 #
[L 4 7418ms Q]
[R 4 7420ms Q]
 #
[L 5 7470ms Q]
[R 5 7471ms Q]
 #
[L 6 7522ms Q]
[R 6 7523ms Q]
 #
[L 0 7573ms Q]
[R 0 7575ms Q]
 #
[L 1 7625ms Q]
[R 1 7627ms Q]
 #
[L 2 7677ms Q]
[R 2 7678ms Q]
 #
[L 3 7729ms Q]
[R 3 7730ms Q]
 #
[L 4 7780ms Q]
[R 4 7782ms Q]
 #
[L 5 7832ms Q]
[R 5 7834ms Q]
 #
[L 6 7884ms Q]
[R 6 7886ms Q]
 #
[L 0 7936ms Q]
[R 0 7937ms Q]
 #
[L 1 7988ms Q]
[R 1 7989ms Q]
 #
[L 2 8039ms Q]
[R 2 8041ms Q]
 #
[L 3 8091ms Q]
[R 3 8093ms Q]
 #
[L 4 8143ms Q]
[R 4 8144ms Q]
 #
[L 5 8195ms Q]
[R 5 8196ms Q]
 #
[L 6 8246ms Q]
[R 6 8248ms Q]
 #
[L 0 8298ms Q]
[R 0 8300ms Q]
 #
[L 1 8350ms Q]
[R 1 8351ms Q]
 #
[L 2 8402ms Q]
[R 2 8403ms Q]
 #
[L 3 8453ms Q]
[R 3 8455ms Q]
 #
[L 4 8505ms Q]
[R 4 8506ms Q]
 #
[L 5 8557ms Q]
[R 5 8558ms Q]
 #
[L 6 8609ms Q]
[R 6 8610ms Q]
 #
[L 0 8660ms Q]
[R 0 8662ms Q]
 #
[L 1 8712ms Q]
[R 1 8713ms Q]
 #
[L 2 8764ms Q]
[R 2 8765ms Q]
 #
[L 3 8816ms Q]
[R 3 8817ms Q]
 #
[L 4 8868ms Q]
[R 4 8869ms Q]
 #
[L 5 8919ms Q]
[R 5 8921ms Q]
 #
[L 6 8971ms Q]
[R 6 8973ms Q]
 #
[L 0 9023ms Q]
[R 0 9024ms Q]
 #
[L 1 9075ms Q]
[R 1 9076ms Q]
 #
[L 2 9127ms Q]
[R 2 9128ms Q]
 #
[L 3 9179ms Q]
[R 3 9180ms Q]
 #
[L 4 9231ms Q]
[R 4 9232ms Q]
 #
[L 5 9282ms Q]
[R 5 9283ms Q]
 #
[L 6 9335ms Q]
[R 6 9336ms Q]
 #
[L 0 9387ms Q]
[R 0 9389ms Q]
 #
[L 1 9439ms Q]
[R 1 9440ms Q]
 #
[L 2 9491ms Q]
[R 2 9492ms Q]
 #
[L 3 9543ms Q]
[R 3 9544ms Q]
 #
[L 4 9594ms Q]
[R 4 9596ms Q]
 #
[L 5 9646ms Q]
[R 5 9648ms Q]
 #
[L 6 9698ms Q]
[R 6 9700ms Q]
 #
[L 0 9751ms Q]
[R 0 9752ms Q]
 #
[L 1 9803ms Q]
[R 1 9804ms Q]
 #
[L 2 9854ms Q]
[R 2 9856ms Q]
 #
[L 3 9906ms Q]
[R 3 9907ms Q]
 #
[L 4 9958ms Q]
[R 4 9959ms Q]
 #
[L 5 10010ms Q]
[R 5 10011ms Q]
 #
[L 6 10072ms Q]
[R 6 10074ms Q]
 #
[L 0 10124ms Q]
[R 0 10126ms Q]
 #
[L 1 10177ms Q]
[R 1 10178ms Q]
 #
[L 2 10228ms Q]
[R 2 10230ms Q]
 #
[L 3 10280ms Q]
[R 3 10281ms Q]
 #
[L 4 10332ms Q]
[R 4 10333ms Q]
 #
[L 5 10383ms Q]
[R 5 10385ms Q]
 #
[L 6 10435ms Q]
[R 6 10437ms Q]
 #
[L 0 10488ms Q]
[R 0 10489ms Q]
 #
[L 1 10540ms Q]
[R 1 10541ms Q]
 #
[L 2 10592ms Q]
[R 2 10593ms Q]
 #
[L 3 10643ms Q]
[R 3 10645ms Q]
 #
[L 4 10695ms Q]
[R 4 10697ms Q]
 #
[L 5 10747ms Q]
[R 5 10749ms Q]
 #
[L 6 10800ms Q]
[R 6 10801ms Q]
 #
[L 0 10851ms Q]
[R 0 10853ms Q]
 #
[L 1 10904ms Q]
[R 1 10905ms Q]
 #
[L 2 10956ms Q]
[R 2 10957ms Q]
 #
[L 3 11008ms Q]
[R 3 11010ms Q]
 #
[L 4 11060ms Q]
[R 4 11062ms Q]
 #
[L 5 11112ms Q]
[R 5 11113ms Q]
 #
[L 6 11164ms Q]
[R 6 11165ms Q]
 #
[L 0 11216ms Q]
[R 0 11217ms Q]
 #
[L 1 11268ms Q]
[R 1 11270ms Q]
 #
[L 2 11320ms Q]
[R 2 11321ms Q]
 #
[L 3 11372ms Q]
[R 3 11373ms Q]
 #
[L 4 11424ms Q]
[R 4 11425ms Q]
 #
[L 5 11476ms Q]
[R 5 11554ms  (Frame: 181 dropped packets) Q]
 #
[L 6 11604ms Q]
 #

Event: camera 5006124 unplugged

Stopping camera 5006123 (28936880)
Fri Dec 30 09:58:50 2011 PvCall PvCommandRun Error 8 'Camera was unplugged'

Stopping camera 5006123 (28936880)
Camera stopped.
Fri Dec 30 09:58:50 2011 PvCall PvCommandRun Error 8 'Camera was unplugged'

Stopping camera 5006123 (28936880)
Camera stopped.
Camera stopped.

Interrupt received (0)

1st pause...

Unsetup camera 5006123 (28936880)
